{
  "profiles": {
    "STE.UnitTests": {
      "commandName": "Project",
      "launchBrowser": true,
      "environmentVariables": {
        "ASPNETCORE_ENVIRONMENT": "Development"
      },
      "applicationUrl": "https://localhost:59513;http://localhost:59514"
    }
  }
}