{
  "profiles": {
    "Docker Compose": {
      "commandName": "DockerCompose",
      "commandVersion": "1.0",
      "serviceActions": {
        "ste.websell.api": "StartDebugging",
        "nginx": "StartWithoutDebugging",
        "ste.websell.db": "StartWithoutDebugging",
        "ste.websell.web": "StartWithoutDebugging"
      }
    }
  }
}